<?xml version="1.0" encoding="UTF-8"?>
<svg width="1024px" height="1024px" viewBox="0 0 1024 1024" xmlns="http://www.w3.org/2000/svg" xmlns:xlink="http://www.w3.org/1999/xlink" version="1.1">
 <!-- Generated by Pixelmator Pro 2.0.8 -->
 <g id="Logo---Outline">
  <path id="@Gear-Blue-" d="M527.363 1002.939 C499.337 1002.929 462.697 1002.83 460.986 1002.824 428.607 1000.705 424.647 962.849 424.647 962.849 L407.947 842.388 C397.799 839.301 387.906 835.795 378.27 831.867 367.788 827.594 357.671 822.966 347.92 817.978 L252.637 886.535 C252.637 886.535 227.468 910.745 198.127 890.17 195.49 888.562 140.106 832.952 137.561 829.601 116.801 801.724 136.348 771.459 136.348 771.459 L204.82 677.88 C199.505 667.882 194.654 657.548 190.27 646.879 185.974 636.427 182.215 625.814 178.992 615.041 L51.555 594.603 C51.555 594.603 23.142 588.94 21.272 560.685 21.022 557.251 21.178 472.987 21.272 468.625 32.051 428.73 70.936 425.015 70.936 425.015 L179.272 411.775 C182.859 400.129 187.099 388.727 191.99 377.57 194.983 370.743 198.159 364.062 201.518 357.525 L136.348 255.429 C136.348 255.429 122.135 225.898 136.348 204.552 140.838 192.547 206.074 144.246 212.662 139.14 234.607 116.342 267.174 139.14 267.174 139.14 L350.355 209.252 C360.192 204.169 370.356 199.472 380.85 195.164 385.047 193.44 389.28 191.8 393.545 190.244 L411.322 181.537 424.647 67.672 C424.647 67.672 433.976 31.237 462.197 22.853 464.696 22.778 549.415 22.853 553.049 22.853 567.267 24.386 593.368 32.761 596.656 62.826 597.105 65.337 611.853 176.189 612.27 179.318 625.647 182.673 638.708 186.806 651.449 191.72 660.598 195.249 669.469 199.079 678.066 203.203 698.704 188.559 768.985 138.66 771.088 136.718 795.471 117.805 811.816 127.11 821.965 133.084 824.375 136.173 888.685 198.874 889.799 200.92 895.941 212.197 902.3 222.152 889.799 248.162 880.144 262.278 838.726 320.82 822.475 343.773 823.568 345.986 824.637 348.217 825.682 350.466 834.881 370.269 841.579 390.792 845.777 412.035 860.784 413.635 931.717 421.324 955.211 426.228 964.636 428.013 1000.301 437.824 1000.031 464.99 999.981 470.047 1000.164 557.557 1000.031 560.685 999.144 581.605 978.055 598.163 951.578 600.66 936.163 603.41 826.79 621.286 809.701 624.078 806.589 628.844 803.313 633.433 799.869 637.843 783.521 658.78 763.876 674.984 740.932 686.457 717.987 697.929 692.175 703.666 663.494 703.666 648.007 703.666 634.098 699.651 621.766 691.621 609.433 683.59 598.678 672.69 589.5 658.923 570.571 677.853 552.501 689.755 535.293 694.63 518.085 699.506 502.025 701.945 487.111 701.945 468.756 701.945 449.682 697.5 429.893 688.609 410.103 679.718 392.035 667.242 375.688 651.181 359.34 635.12 345.717 615.904 334.818 593.533 323.92 571.162 318.471 546.498 318.471 519.539 318.471 493.153 323.632 468.918 333.957 446.834 344.282 424.75 357.762 405.821 374.397 390.047 391.031 374.272 410.103 362.082 431.613 353.478 453.124 344.874 475.065 340.572 497.436 340.572 522.101 340.572 543.611 345.305 561.967 354.769 580.322 364.234 593.802 376.709 602.406 392.197 L610.148 348.316 689.307 348.316 663.494 562.558 C661.773 576.325 660.914 590.092 660.914 603.859 660.914 609.595 662.347 614.183 665.215 617.625 668.083 621.066 671.526 622.787 675.541 622.787 688.734 622.787 700.922 618.485 712.107 609.88 723.293 601.276 733.044 589.805 741.361 575.464 749.679 561.124 756.132 544.777 760.721 526.422 765.31 508.066 767.606 489.137 767.606 469.634 767.606 436.939 761.295 407.112 748.676 380.152 736.056 353.192 718.705 330.247 696.621 311.318 674.537 292.389 648.582 277.762 618.754 267.437 588.926 257.112 556.803 251.951 522.387 251.951 482.808 251.951 446.242 258.69 412.686 272.17 379.129 285.649 350.162 304.005 325.783 327.236 301.405 350.467 282.333 378.143 268.566 410.265 254.8 442.387 247.916 476.804 247.916 513.515 247.916 554.815 255.373 591.812 270.287 624.507 285.201 657.203 305.42 684.736 330.945 707.107 356.471 729.478 386.3 746.543 420.43 758.302 454.56 770.061 491.888 778.128 530.318 778.484 552.015 778.685 560.779 777.649 578.949 774.744 583.103 780.612 615.792 842.685 620.1 849.562 L599.078 956.793 C599.078 956.793 588.053 1000.305 559.106 1002.824 557.895 1002.92 544.179 1002.945 527.363 1002.939 Z M498.297 607.3 C509.769 607.3 520.81 604.862 531.422 599.986 542.034 595.11 551.211 588.657 558.955 580.627 566.699 572.596 572.864 563.133 577.453 552.234 582.042 541.336 584.338 530.15 584.338 518.677 584.338 507.205 582.042 496.164 577.453 485.552 572.864 474.94 566.699 465.475 558.955 457.158 551.211 448.84 542.034 442.245 531.422 437.369 520.81 432.493 509.769 430.054 498.297 430.054 486.825 430.054 475.782 432.493 465.17 437.369 454.558 442.245 445.38 448.84 437.637 457.158 429.893 465.475 423.728 474.94 419.139 485.552 414.55 496.164 412.254 507.205 412.254 518.677 412.254 530.15 414.55 541.336 419.139 552.234 423.728 563.133 429.893 572.596 437.637 580.627 445.38 588.657 454.558 595.11 465.17 599.986 475.782 604.862 486.825 607.3 498.297 607.3 Z" fill="#5b9add" fill-opacity="1" stroke="#5089c6" stroke-width="10" stroke-opacity="1" stroke-linejoin="round" stroke-linecap="round"/>
  <path id="Rectangle" d="M715.944 1002.607 L999.755 1002.607 999.755 920 715.944 920 Z" fill="#5a9add" fill-opacity="1" stroke="#5089c6" stroke-width="10" stroke-opacity="1" stroke-linejoin="round" stroke-linecap="round"/>
 </g>
</svg>
