<?xml version="1.0" encoding="UTF-8"?>
<svg width="1024px" height="1024px" viewBox="0 0 1024 1024" xmlns="http://www.w3.org/2000/svg" xmlns:xlink="http://www.w3.org/1999/xlink" version="1.1">
 <!-- Generated by Pixelmator Pro 2.0.8 -->
 <g id="Square-Terminal">
  <defs>
   <path id="Terminal-Frame" d="M189 19 C95.112 19 19 95.112 19 189 L19 835 C19 928.888 95.112 1005 189 1005 L835 1005 C928.888 1005 1005 928.888 1005 835 L1005 189 C1005 95.112 928.888 19 835 19 Z"/>
  </defs>
  <use id="Terminal-Frame-1" xlink:href="#Terminal-Frame" fill="#000000" fill-opacity="1" stroke="none"/>
  <defs>
   <linearGradient id="linear-gradient" gradientUnits="userSpaceOnUse" x1="527.336" y1="995.219" x2="527.336" y2="22.219">
    <stop offset="0" stop-color="#757473" stop-opacity="1"/>
    <stop offset="1" stop-color="#d2e8ef" stop-opacity="1"/>
   </linearGradient>
  </defs>
  <defs>
   <path id="stroke-path" d="M848.25 981.906 L863.234 979.797 869.953 978.344 880.422 975.359 894.391 970.047 900.453 967.219 909.688 962.219 922.063 954.078 927.375 949.984 935.484 942.969 943 935.453 947.609 930.266 954.297 921.75 958.188 916.141 963.859 906.797 968.703 897.344 973.016 887.156 975.25 880.797 978.266 870.188 980.516 859.172 981.922 848.203 982.375 840.891 982.5 189.625 981.875 175.531 980.516 164.844 978.281 153.906 974.125 139.953 970.234 130.078 963.797 117.109 958.328 108.109 949.922 96.578 940.5 85.969 930.156 76.344 918.938 67.719 906.844 60.188 893.922 53.766 884.047 49.875 870.094 45.719 859.156 43.484 848.469 42.125 834.375 41.5 189.625 41.5 175.75 42.109 161.016 44.172 146.844 47.625 133.313 52.391 120.203 58.5 108.094 65.672 96.391 74.203 91.203 78.594 83.547 85.891 74.063 96.578 65.656 108.109 58.484 120.219 52.375 133.328 47.609 146.859 44.156 161.031 42.094 175.75 41.5 189.609 41.5 836.531 42.469 851.922 44.922 866.719 47.594 877.109 52.438 890.859 56.766 900.438 63.844 913.094 69.625 921.641 78.609 932.797 88.734 943.172 96.406 949.828 108.094 958.344 117.094 963.813 130.063 970.25 139.938 974.141 153.891 978.297 164.828 980.531 175.516 981.891 189.609 982.5 834.391 982.5 Z"/>
  </defs>
  <use id="Terminal-Frame-2" stroke="url(#linear-gradient)" stroke-opacity="1" stroke-linecap="round" fill="none" stroke-width="45" xlink:href="#stroke-path"/>
  <path id="Screen-Gray" d="M243 120 C175.07 120 120 175.07 120 243 L120 781 C120 848.93 175.07 904 243 904 L781 904 C848.93 904 904 848.93 904 781 L904 243 C904 175.07 848.93 120 781 120 Z" fill="#262626" fill-opacity="1" stroke="none"/>
 </g>
 <path id="@Gear-Blue" d="M522.683 838.236 C504.033 838.229 479.652 838.161 478.514 838.157 456.966 836.748 454.33 811.558 454.33 811.558 L443.219 731.396 C436.465 729.341 429.88 727.008 423.467 724.394 416.492 721.551 409.76 718.469 403.271 715.15 L339.863 760.773 C339.863 760.773 323.115 776.883 303.59 763.191 301.835 762.121 264.979 725.116 263.285 722.886 249.47 704.335 262.478 684.193 262.478 684.193 L308.043 621.919 C304.506 615.266 301.277 608.39 298.359 601.29 295.501 594.335 293 587.272 290.855 580.103 L206.051 566.501 C206.051 566.501 187.143 562.733 185.898 543.931 185.732 541.646 185.836 485.57 185.898 482.667 193.072 456.119 218.949 453.648 218.949 453.648 L291.043 444.835 C293.43 437.086 296.251 429.498 299.506 422.074 301.497 417.53 303.611 413.086 305.846 408.736 L262.478 340.794 C262.478 340.794 253.02 321.141 262.478 306.937 265.467 298.948 308.878 266.805 313.262 263.408 327.865 248.236 349.537 263.408 349.537 263.408 L404.892 310.064 C411.438 306.681 418.203 303.556 425.185 300.689 427.981 299.541 430.8 298.45 433.641 297.413 L445.463 291.622 454.33 215.849 C454.33 215.849 460.54 191.602 479.32 186.023 480.983 185.973 537.359 186.023 539.777 186.023 549.239 187.043 566.609 192.617 568.797 212.624 569.097 214.304 579.011 288.831 579.185 290.144 588.088 292.377 596.78 295.127 605.26 298.398 611.348 300.746 617.249 303.296 622.971 306.04 636.702 296.297 683.476 263.088 684.875 261.796 701.101 249.21 711.978 255.403 718.732 259.378 720.336 261.434 763.131 303.157 763.873 304.519 767.96 312.023 772.192 318.648 763.873 335.956 757.448 345.351 729.884 384.312 719.07 399.585 719.797 401.058 720.51 402.542 721.205 404.038 727.327 417.215 731.784 430.872 734.578 445.007 744.566 446.072 791.768 451.191 807.402 454.454 813.674 455.642 837.408 462.171 837.228 480.249 837.195 483.615 837.317 541.849 837.228 543.931 836.638 557.852 822.604 568.871 804.984 570.532 794.726 572.362 721.941 584.259 710.57 586.116 708.499 589.288 706.319 592.344 704.027 595.279 693.148 609.211 680.075 619.994 664.807 627.628 649.538 635.263 632.361 639.079 613.275 639.079 602.969 639.079 593.713 636.408 585.506 631.064 577.299 625.72 570.141 618.467 564.033 609.306 551.436 621.903 539.414 629.823 527.963 633.068 516.511 636.312 505.823 637.935 495.898 637.935 483.683 637.935 470.991 634.976 457.822 629.06 444.653 623.143 432.629 614.842 421.75 604.154 410.871 593.466 401.805 580.677 394.553 565.79 387.3 550.903 383.674 534.489 383.674 516.548 383.674 498.989 387.109 482.863 393.98 468.167 400.851 453.471 409.821 440.873 420.891 430.376 431.96 419.879 444.652 411.768 458.967 406.042 473.281 400.317 487.882 397.454 502.769 397.454 519.183 397.454 533.496 400.603 545.711 406.902 557.926 413.2 566.897 421.502 572.623 431.808 L577.775 402.607 630.453 402.607 613.275 545.177 C612.13 554.338 611.558 563.5 611.558 572.661 611.558 576.479 612.511 579.531 614.42 581.822 616.328 584.112 618.619 585.257 621.291 585.257 630.07 585.257 638.181 582.395 645.625 576.669 653.068 570.943 659.559 563.31 665.094 553.767 670.629 544.224 674.923 533.345 677.976 521.13 681.03 508.915 682.557 496.318 682.557 483.339 682.557 461.581 678.359 441.733 669.961 423.792 661.563 405.852 650.016 390.582 635.32 377.986 620.624 365.389 603.351 355.655 583.502 348.784 563.653 341.914 542.276 338.478 519.373 338.478 493.034 338.478 468.701 342.964 446.371 351.935 424.041 360.905 404.764 373.12 388.541 388.579 372.318 404.039 359.626 422.455 350.465 443.831 341.304 465.207 336.723 488.11 336.723 512.54 336.723 540.024 341.685 564.646 351.609 586.404 361.534 608.161 374.99 626.483 391.976 641.37 408.963 656.257 428.811 667.614 451.523 675.439 474.236 683.264 499.076 688.631 524.65 688.868 539.088 689.002 544.922 688.313 557.014 686.38 559.777 690.286 581.532 731.591 584.398 736.167 L570.408 807.527 C570.408 807.527 563.07 836.481 543.807 838.157 543.001 838.221 533.874 838.24 522.683 838.236 Z M503.342 574.952 C510.976 574.952 518.323 573.33 525.385 570.085 532.446 566.841 538.554 562.547 543.707 557.202 548.86 551.858 552.964 545.559 556.017 538.306 559.071 531.053 560.599 523.61 560.599 515.976 560.599 508.341 559.071 500.995 556.017 493.933 552.964 486.871 548.86 480.573 543.707 475.038 538.554 469.503 532.446 465.113 525.385 461.868 518.323 458.624 510.976 457.001 503.342 457.001 495.707 457.001 488.359 458.624 481.297 461.868 474.235 465.113 468.128 469.503 462.975 475.038 457.821 480.573 453.718 486.871 450.664 493.933 447.61 500.995 446.084 508.341 446.084 515.976 446.084 523.61 447.61 531.053 450.664 538.306 453.718 545.559 457.821 551.858 462.975 557.202 468.128 562.547 474.235 566.841 481.297 570.085 488.359 573.33 495.707 574.952 503.342 574.952 Z" fill="#5b9add" fill-opacity="1" stroke="none"/>
 <path id="Cursor" d="M664 836.738 L837 836.738 837 779.65 664 779.65 Z" fill="#5b9add" fill-opacity="0.583" stroke="none"/>
</svg>
